…
``` r
library(gapminder)
library(dplyr)
```

First I will select the data that I am interested in. I will look at
lifeExp by year for Canada, China, and Ethiopia.

``` r
print(gapminder)
```

    ## # A tibble: 1,704 x 6
    ##    country     continent  year lifeExp      pop gdpPercap
    ##    <fct>       <fct>     <int>   <dbl>    <int>     <dbl>
    ##  1 Afghanistan Asia       1952    28.8  8425333      779.
    ##  2 Afghanistan Asia       1957    30.3  9240934      821.
    ##  3 Afghanistan Asia       1962    32.0 10267083      853.
    ##  4 Afghanistan Asia       1967    34.0 11537966      836.
    ##  5 Afghanistan Asia       1972    36.1 13079460      740.
    ##  6 Afghanistan Asia       1977    38.4 14880372      786.
    ##  7 Afghanistan Asia       1982    39.9 12881816      978.
    ##  8 Afghanistan Asia       1987    40.8 13867957      852.
    ##  9 Afghanistan Asia       1992    41.7 16317921      649.
    ## 10 Afghanistan Asia       1997    41.8 22227415      635.
    ## # ... with 1,694 more rows

Next i will filter the data to create the data frame

``` r
dat <- gapminder %>% 
select(year, lifeExp, country) %>% 
  filter(country %in% c("Canada", "China", "Ethiopia"))

dat 
```

    ## # A tibble: 36 x 3
    ##     year lifeExp country
    ##    <int>   <dbl> <fct>  
    ##  1  1952    68.8 Canada 
    ##  2  1957    70.0 Canada 
    ##  3  1962    71.3 Canada 
    ##  4  1967    72.1 Canada 
    ##  5  1972    72.9 Canada 
    ##  6  1977    74.2 Canada 
    ##  7  1982    75.8 Canada 
    ##  8  1987    76.9 Canada 
    ##  9  1992    78.0 Canada 
    ## 10  1997    78.6 Canada 
    ## # ... with 26 more rows
…
